Connections between tables — ed_tables_conn • EIDITH
…
#> 2           Animal            Event    event_id
#> 3 TestIDSpecimenID             Test     test_id
#> 4 TestIDSpecimenID            Virus     test_id
#> 5         Specimen TestIDSpecimenID specimen_id
#> 6             Test            Virus     test_id
ed_tables_conn(cols = "all")
#>                 T1               T2        conn
#> 1           Animal         Specimen   animal_id
#> 2           Animal            Event    event_id
#> 3 TestIDSpecimenID             Test     test_id
#> 4 TestIDSpecimenID            Virus     test_id
#> 5         Specimen TestIDSpecimenID specimen_id
#> 6             Test            Virus     test_id
ed2_tables_conn()
#> # A tibble: 25 x 3
#>    T1    T2                 conn      
#>    <chr> <chr>              <chr>     
#>  1 Event ZooSanctuary       event_name
#>  2 Event AnimalProduction   event_name
#>  3 Event CropProduction     event_name
#>  4 Event Dwellings          event_name
#>  5 Event ExtractiveIndustry event_name
#>  6 Event WildlifeRestaurant event_name
#>  7 Event NaturalAreas       event_name
#>  8 Event MarketValueChain   event_name
#>  9 Event Animal             event_name
#> 10 Event Human              event_name
#> # ... with 15 more rows
…
